[
{"site_name": "topbet", "team_one": {"juice": "-110", "spread": "+9.5", "money_line": "-110", "name": "Akron"}, "team_two": {"juice": "-110", "spread": "-9.5", "money_line": "-110", "name": "Davidson"}, "game_time": "12:30pm", "game_type": "ncaa", "site_url": "topbet.eu", "second_half": 0, "game_date": "Monday, December 25, 2017", "scraped_at": "2017-12-24 18:14:49"},
{"site_name": "topbet", "team_one": {"juice": "-110", "spread": "-1", "money_line": "-110", "name": "Princeton"}, "team_two": {"juice": "-110", "spread": "+1", "money_line": "-110", "name": "Hawaii"}, "game_time": "2:30pm", "game_type": "ncaa", "site_url": "topbet.eu", "second_half": 0, "game_date": "Monday, December 25, 2017", "scraped_at": "2017-12-24 18:14:49"},
{"site_name": "topbet", "team_one": {"juice": "-110", "spread": "-4.5", "money_line": "-110", "name": "Southern California"}, "team_two": {"juice": "-110", "spread": "+4.5", "money_line": "-110", "name": "New Mexico State"}, "game_time": "6:00pm", "game_type": "ncaa", "site_url": "topbet.eu", "second_half": 0, "game_date": "Monday, December 25, 2017", "scraped_at": "2017-12-24 18:14:49"},
{"site_name": "topbet", "team_one": {"juice": "-110", "spread": "+6", "money_line": "-110", "name": "Middle Tenn St"}, "team_two": {"juice": "-110", "spread": "-6", "money_line": "-110", "name": "Miami Florida"}, "game_time": "8:30pm", "game_type": "ncaa", "site_url": "topbet.eu", "second_half": 0, "game_date": "Monday, December 25, 2017", "scraped_at": "2017-12-24 18:14:49"},
{"site_name": "topbet", "team_one": {"juice": "", "spread": "", "money_line": "+120", "name": "Chael Sonnen"}, "team_two": {"juice": "", "spread": "", "money_line": "-150", "name": "Quinton Jackson"}, "game_time": "3:00pm", "game_type": "mma", "site_url": "topbet.eu", "second_half": 0, "game_date": "Saturday, January 20, 2018", "scraped_at": "2017-12-24 18:14:51"},
{"site_name": "topbet", "team_one": {"juice": "", "spread": "", "money_line": "+150", "name": "Luke Rockhold"}, "team_two": {"juice": "", "spread": "", "money_line": "-180", "name": "Robert Whittaker"}, "game_time": "3:00pm", "game_type": "mma", "site_url": "topbet.eu", "second_half": 0, "game_date": "Saturday, February 10, 2018", "scraped_at": "2017-12-24 18:14:51"},
{"site_name": "topbet", "team_one": {"juice": "", "spread": "", "money_line": "+145", "name": "Stipe Miocic"}, "team_two": {"juice": "", "spread": "", "money_line": "-175", "name": "Francis Ngannou"}, "game_time": "3:00pm", "game_type": "mma", "site_url": "topbet.eu", "second_half": 0, "game_date": "Saturday, January 20, 2018", "scraped_at": "2017-12-24 18:14:51"},
{"site_name": "topbet", "team_one": {"juice": "", "spread": "", "money_line": "+180", "name": "Omari Akhmedov"}, "team_two": {"juice": "", "spread": "", "money_line": "-240", "name": "Marvin Vettori"}, "game_time": "7:15pm", "game_type": "mma", "site_url": "topbet.eu", "second_half": 0, "game_date": "Saturday, December 30, 2017", "scraped_at": "2017-12-24 18:14:51"},
{"site_name": "topbet", "team_one": {"juice": "", "spread": "", "money_line": "+260", "name": "Louis Smolka"}, "team_two": {"juice": "", "spread": "", "money_line": "-340", "name": "Matheus Nicolau Pereira"}, "game_time": "8:15pm", "game_type": "mma", "site_url": "topbet.eu", "second_half": 0, "game_date": "Saturday, December 30, 2017", "scraped_at": "2017-12-24 18:14:51"},
{"site_name": "topbet", "team_one": {"juice": "", "spread": "", "money_line": "+200", "name": "Rick Glenn"}, "team_two": {"juice": "", "spread": "", "money_line": "-260", "name": "Myles Jury"}, "game_time": "8:45pm", "game_type": "mma", "site_url": "topbet.eu", "second_half": 0, "game_date": "Saturday, December 30, 2017", "scraped_at": "2017-12-24 18:14:51"},
{"site_name": "topbet", "team_one": {"juice": "", "spread": "", "money_line": "+150", "name": "Dan Hooker"}, "team_two": {"juice": "", "spread": "", "money_line": "-180", "name": "Marc Diakiese"}, "game_time": "9:15pm", "game_type": "mma", "site_url": "topbet.eu", "second_half": 0, "game_date": "Saturday, December 30, 2017", "scraped_at": "2017-12-24 18:14:51"},
{"site_name": "topbet", "team_one": {"juice": "", "spread": "", "money_line": "+250", "name": "Michal Oleksiejczuk"}, "team_two": {"juice": "", "spread": "", "money_line": "-330", "name": "Khalil Rountree"}, "game_time": "9:45pm", "game_type": "mma", "site_url": "topbet.eu", "second_half": 0, "game_date": "Saturday, December 30, 2017", "scraped_at": "2017-12-24 18:14:51"},
{"site_name": "topbet", "team_one": {"juice": "", "spread": "", "money_line": "+135", "name": "Neil Magny"}, "team_two": {"juice": "", "spread": "", "money_line": "-165", "name": "Carlos Condit"}, "game_time": "10:15pm", "game_type": "mma", "site_url": "topbet.eu", "second_half": 0, "game_date": "Saturday, December 30, 2017", "scraped_at": "2017-12-24 18:14:51"},
{"site_name": "topbet", "team_one": {"juice": "", "spread": "", "money_line": "+210", "name": "Carla Esparza"}, "team_two": {"juice": "", "spread": "", "money_line": "-280", "name": "Cynthia Calvillo"}, "game_time": "10:45pm", "game_type": "mma", "site_url": "topbet.eu", "second_half": 0, "game_date": "Saturday, December 30, 2017", "scraped_at": "2017-12-24 18:14:51"},
{"site_name": "topbet", "team_one": {"juice": "", "spread": "", "money_line": "+165", "name": "John Lineker"}, "team_two": {"juice": "", "spread": "", "money_line": "-210", "name": "Jimmie Rivera"}, "game_time": "11:15pm", "game_type": "mma", "site_url": "topbet.eu", "second_half": 0, "game_date": "Saturday, December 30, 2017", "scraped_at": "2017-12-24 18:14:51"},
{"site_name": "topbet", "team_one": {"juice": "", "spread": "", "money_line": "+220", "name": "Edson Barboza"}, "team_two": {"juice": "", "spread": "", "money_line": "-300", "name": "Khabib Nurmagomedov"}, "game_time": "11:45pm", "game_type": "mma", "site_url": "topbet.eu", "second_half": 0, "game_date": "Saturday, December 30, 2017", "scraped_at": "2017-12-24 18:14:51"},
{"site_name": "topbet", "team_one": {"juice": "", "spread": "", "money_line": "+290", "name": "Holly Holm"}, "team_two": {"juice": "", "spread": "", "money_line": "-380", "name": "Cris Cyborg"}, "game_time": "12:15am", "game_type": "mma", "site_url": "topbet.eu", "second_half": 0, "game_date": "Sunday, December 31, 2017", "scraped_at": "2017-12-24 18:14:51"}
][
{"site_name": "topbet", "team_one": {"juice": "", "spread": "", "money_line": "+145", "name": "Stipe Miocic"}, "team_two": {"juice": "", "spread": "", "money_line": "-175", "name": "Francis Ngannou"}, "game_time": "3:00pm", "game_type": "mma", "site_url": "topbet.eu", "second_half": 0, "game_date": "Saturday, January 20, 2018", "scraped_at": "2017-12-26 13:13:26"},
{"site_name": "topbet", "team_one": {"juice": "", "spread": "", "money_line": "+150", "name": "Luke Rockhold"}, "team_two": {"juice": "", "spread": "", "money_line": "-180", "name": "Robert Whittaker"}, "game_time": "3:00pm", "game_type": "mma", "site_url": "topbet.eu", "second_half": 0, "game_date": "Saturday, February 10, 2018", "scraped_at": "2017-12-26 13:13:26"},
{"site_name": "topbet", "team_one": {"juice": "", "spread": "", "money_line": "+120", "name": "Chael Sonnen"}, "team_two": {"juice": "", "spread": "", "money_line": "-150", "name": "Quinton Jackson"}, "game_time": "3:00pm", "game_type": "mma", "site_url": "topbet.eu", "second_half": 0, "game_date": "Saturday, January 20, 2018", "scraped_at": "2017-12-26 13:13:26"},
{"site_name": "topbet", "team_one": {"juice": "", "spread": "", "money_line": "+180", "name": "Omari Akhmedov"}, "team_two": {"juice": "", "spread": "", "money_line": "-240", "name": "Marvin Vettori"}, "game_time": "7:15pm", "game_type": "mma", "site_url": "topbet.eu", "second_half": 0, "game_date": "Saturday, December 30, 2017", "scraped_at": "2017-12-26 13:13:26"},
{"site_name": "topbet", "team_one": {"juice": "", "spread": "", "money_line": "+250", "name": "Louis Smolka"}, "team_two": {"juice": "", "spread": "", "money_line": "-330", "name": "Matheus Nicolau Pereira"}, "game_time": "8:15pm", "game_type": "mma", "site_url": "topbet.eu", "second_half": 0, "game_date": "Saturday, December 30, 2017", "scraped_at": "2017-12-26 13:13:26"},
{"site_name": "topbet", "team_one": {"juice": "", "spread": "", "money_line": "+190", "name": "Rick Glenn"}, "team_two": {"juice": "", "spread": "", "money_line": "-250", "name": "Myles Jury"}, "game_time": "8:45pm", "game_type": "mma", "site_url": "topbet.eu", "second_half": 0, "game_date": "Saturday, December 30, 2017", "scraped_at": "2017-12-26 13:13:26"},
{"site_name": "topbet", "team_one": {"juice": "", "spread": "", "money_line": "+150", "name": "Dan Hooker"}, "team_two": {"juice": "", "spread": "", "money_line": "-180", "name": "Marc Diakiese"}, "game_time": "9:15pm", "game_type": "mma", "site_url": "topbet.eu", "second_half": 0, "game_date": "Saturday, December 30, 2017", "scraped_at": "2017-12-26 13:13:26"},
{"site_name": "topbet", "team_one": {"juice": "", "spread": "", "money_line": "+240", "name": "Michal Oleksiejczuk"}, "team_two": {"juice": "", "spread": "", "money_line": "-320", "name": "Khalil Rountree"}, "game_time": "9:45pm", "game_type": "mma", "site_url": "topbet.eu", "second_half": 0, "game_date": "Saturday, December 30, 2017", "scraped_at": "2017-12-26 13:13:26"},
{"site_name": "topbet", "team_one": {"juice": "", "spread": "", "money_line": "+140", "name": "Neil Magny"}, "team_two": {"juice": "", "spread": "", "money_line": "-170", "name": "Carlos Condit"}, "game_time": "10:15pm", "game_type": "mma", "site_url": "topbet.eu", "second_half": 0, "game_date": "Saturday, December 30, 2017", "scraped_at": "2017-12-26 13:13:26"},
{"site_name": "topbet", "team_one": {"juice": "", "spread": "", "money_line": "+210", "name": "Carla Esparza"}, "team_two": {"juice": "", "spread": "", "money_line": "-280", "name": "Cynthia Calvillo"}, "game_time": "10:45pm", "game_type": "mma", "site_url": "topbet.eu", "second_half": 0, "game_date": "Saturday, December 30, 2017", "scraped_at": "2017-12-26 13:13:26"},
{"site_name": "topbet", "team_one": {"juice": "", "spread": "", "money_line": "+165", "name": "John Lineker"}, "team_two": {"juice": "", "spread": "", "money_line": "-210", "name": "Jimmie Rivera"}, "game_time": "11:15pm", "game_type": "mma", "site_url": "topbet.eu", "second_half": 0, "game_date": "Saturday, December 30, 2017", "scraped_at": "2017-12-26 13:13:26"},
{"site_name": "topbet", "team_one": {"juice": "", "spread": "", "money_line": "+220", "name": "Edson Barboza"}, "team_two": {"juice": "", "spread": "", "money_line": "-300", "name": "Khabib Nurmagomedov"}, "game_time": "11:45pm", "game_type": "mma", "site_url": "topbet.eu", "second_half": 0, "game_date": "Saturday, December 30, 2017", "scraped_at": "2017-12-26 13:13:26"},
{"site_name": "topbet", "team_one": {"juice": "", "spread": "", "money_line": "+300", "name": "Holly Holm"}, "team_two": {"juice": "", "spread": "", "money_line": "-400", "name": "Cris Cyborg"}, "game_time": "12:15am", "game_type": "mma", "site_url": "topbet.eu", "second_half": 0, "game_date": "Sunday, December 31, 2017", "scraped_at": "2017-12-26 13:13:26"}
]